<?xml version="1.0" encoding="UTF-8" standalone="no"?>
<!-- Created with Inkscape (http://www.inkscape.org/) -->

<svg
   xmlns:dc="http://purl.org/dc/elements/1.1/"
   xmlns:cc="http://creativecommons.org/ns#"
   xmlns:rdf="http://www.w3.org/1999/02/22-rdf-syntax-ns#"
   xmlns:svg="http://www.w3.org/2000/svg"
   xmlns="http://www.w3.org/2000/svg"
   xmlns:sodipodi="http://sodipodi.sourceforge.net/DTD/sodipodi-0.dtd"
   xmlns:inkscape="http://www.inkscape.org/namespaces/inkscape"
   width="62.915058"
   height="60.984581"
   id="svg4725"
   version="1.1"
   inkscape:version="0.48.0 r9654"
   sodipodi:docname="New document 9">
  <defs
     id="defs4727" />
  <sodipodi:namedview
     id="base"
     pagecolor="#ffffff"
     bordercolor="#666666"
     borderopacity="1.0"
     inkscape:pageopacity="0.0"
     inkscape:pageshadow="2"
     inkscape:zoom="12.773721"
     inkscape:cx="31.457529"
     inkscape:cy="30.49229"
     inkscape:document-units="px"
     inkscape:current-layer="layer1"
     showgrid="false"
     fit-margin-top="0"
     fit-margin-left="0"
     fit-margin-right="0"
     fit-margin-bottom="0"
     inkscape:window-width="1680"
     inkscape:window-height="998"
     inkscape:window-x="-8"
     inkscape:window-y="-8"
     inkscape:window-maximized="1" />
  <metadata
     id="metadata4730">
    <rdf:RDF>
      <cc:Work
         rdf:about="">
        <dc:format>image/svg+xml</dc:format>
        <dc:type
           rdf:resource="http://purl.org/dc/dcmitype/StillImage" />
        <dc:title></dc:title>
      </cc:Work>
    </rdf:RDF>
  </metadata>
  <g
     inkscape:label="Layer 1"
     inkscape:groupmode="layer"
     id="layer1"
     transform="translate(-483.35271,-336.86482)">
    <path
       style="fill:#b30000;fill-opacity:1;stroke:none"
       d="m 507.35291,337.09531 -16.37828,1.57351 -7.62192,17.26994 14.85526,28.08459 13.52488,13.82605 23.33636,-13.88971 11.19856,-28.83267 -7.78323,-16.10592 -16.78747,-2.15628 -7.31779,10.41243 z"
       id="path4769"
       inkscape:connector-curvature="0"
       sodipodi:nodetypes="ccccccccccc" />
    <path
       style="fill:#ff8888;fill-opacity:1;stroke:none"
       d="m 506.125,338.86218 -13.75,1.625 -6.75,15 3.375,7.375 -1.125,-7.25 9.25,-12.375 z"
       id="path5279"
       inkscape:connector-curvature="0" />
    <path
       style="fill:#850000;fill-opacity:1;stroke:none"
       d="m 537.875,341.73718 6.875,13.125 -10.5,27.625 -22,13.125 -12.25,-11.375 14.875,2.125 15.25,-13.375 7.125,-20.25 z"
       id="path5281"
       inkscape:connector-curvature="0" />
  </g>
</svg>
