<?xml version="1.0" encoding="UTF-8" standalone="no"?>
<!-- Created with Inkscape (http://www.inkscape.org/) -->

<svg
   xmlns:dc="http://purl.org/dc/elements/1.1/"
   xmlns:cc="http://creativecommons.org/ns#"
   xmlns:rdf="http://www.w3.org/1999/02/22-rdf-syntax-ns#"
   xmlns:svg="http://www.w3.org/2000/svg"
   xmlns="http://www.w3.org/2000/svg"
   xmlns:sodipodi="http://sodipodi.sourceforge.net/DTD/sodipodi-0.dtd"
   xmlns:inkscape="http://www.inkscape.org/namespaces/inkscape"
   width="111.63944"
   height="95.181931"
   id="svg5221"
   version="1.1"
   inkscape:version="0.48.0 r9654"
   sodipodi:docname="mom-head.svg">
  <defs
     id="defs5223" />
  <sodipodi:namedview
     id="base"
     pagecolor="#ffffff"
     bordercolor="#666666"
     borderopacity="1.0"
     inkscape:pageopacity="0.0"
     inkscape:pageshadow="2"
     inkscape:zoom="8.1843266"
     inkscape:cx="55.81972"
     inkscape:cy="47.590966"
     inkscape:document-units="px"
     inkscape:current-layer="layer1"
     showgrid="false"
     fit-margin-top="0"
     fit-margin-left="0"
     fit-margin-right="0"
     fit-margin-bottom="0"
     inkscape:window-width="1680"
     inkscape:window-height="998"
     inkscape:window-x="-8"
     inkscape:window-y="-8"
     inkscape:window-maximized="1" />
  <metadata
     id="metadata5226">
    <rdf:RDF>
      <cc:Work
         rdf:about="">
        <dc:format>image/svg+xml</dc:format>
        <dc:type
           rdf:resource="http://purl.org/dc/dcmitype/StillImage" />
        <dc:title />
      </cc:Work>
    </rdf:RDF>
  </metadata>
  <g
     inkscape:label="Layer 1"
     inkscape:groupmode="layer"
     id="layer1"
     transform="translate(-317.83167,-491.23062)">
    <path
       style="fill:#eee1ba;fill-opacity:1;stroke:none;display:inline"
       d="m 326.12867,538.87399 24.37563,-24.23881 27.732,-12.81015 17.90566,-1.31534 17.91014,11.19538 6.03099,35.43017 -25.51791,26.44892 -31.69924,-4.0903 -27.3599,-15.00226 -5.02721,-2.08722 -8.30137,0.13213 -4.34579,-7.847 z"
       id="path4928"
       inkscape:connector-curvature="0"
       sodipodi:nodetypes="ccccccccccccc" />
    <path
       style="fill:#6b623d;fill-opacity:1;stroke:none;display:inline"
       d="m 378.18928,576.45774 -24.78576,3.89807 -10.58201,-12.79462 1.5008,-9.96654 18.25309,3.12062 6.14446,2.28774 7.4618,-11.17201 12.59495,-1.40859 1.96459,-10.46212 7.40696,-6.93221 4.56676,-17.17844 -5.36502,-9.51563 -3.59391,-5.01362 5.87283,-9.29997 13.69439,-0.7898 8.77862,10.78661 6.54023,24.7388 -5.10113,5.45177 2.67283,5.506 3.25735,23.1994 -4.62452,3.95851 -2.83727,7.21353 -4.12532,0.7195 -1.45892,6.72429 -3.9289,3.21509 -7.81916,3.43734 -19.95259,0.23109 z"
       id="path4930"
       inkscape:connector-curvature="0"
       sodipodi:nodetypes="cccccccccccccccccccccccccccc" />
  </g>
</svg>
