<?xml version="1.0" encoding="UTF-8" standalone="no"?>
<!-- Created with Inkscape (http://www.inkscape.org/) -->

<svg
   xmlns:dc="http://purl.org/dc/elements/1.1/"
   xmlns:cc="http://creativecommons.org/ns#"
   xmlns:rdf="http://www.w3.org/1999/02/22-rdf-syntax-ns#"
   xmlns:svg="http://www.w3.org/2000/svg"
   xmlns="http://www.w3.org/2000/svg"
   xmlns:sodipodi="http://sodipodi.sourceforge.net/DTD/sodipodi-0.dtd"
   xmlns:inkscape="http://www.inkscape.org/namespaces/inkscape"
   sodipodi:docname="preschool.svg"
   inkscape:version="0.48.0 r9654"
   version="1.1"
   id="svg5283"
   height="600"
   width="800">
  <sodipodi:namedview
     id="base"
     pagecolor="#ffffff"
     bordercolor="#666666"
     borderopacity="1.0"
     inkscape:pageopacity="0.0"
     inkscape:pageshadow="2"
     inkscape:zoom="1.335"
     inkscape:cx="400"
     inkscape:cy="300"
     inkscape:document-units="px"
     inkscape:current-layer="layer1"
     showgrid="false"
     inkscape:window-width="1680"
     inkscape:window-height="998"
     inkscape:window-x="-8"
     inkscape:window-y="-8"
     inkscape:window-maximized="1" />
  <defs
     id="defs5285" />
  <metadata
     id="metadata5288">
    <rdf:RDF>
      <cc:Work
         rdf:about="">
        <dc:format>image/svg+xml</dc:format>
        <dc:type
           rdf:resource="http://purl.org/dc/dcmitype/StillImage" />
        <dc:title />
      </cc:Work>
    </rdf:RDF>
  </metadata>
  <g
     inkscape:label="Layer 1"
     inkscape:groupmode="layer"
     id="layer1"
     transform="translate(0,-452.36218)"
     style="display:inline">
    <path
       style="fill:#d8c799;fill-opacity:1;stroke:none"
       d="M -5.4462653,-4.5354508 802.77951,-3.4461977 804.95801,523.75229 -10.892531,504.14573 z"
       id="path5803"
       inkscape:connector-curvature="0"
       transform="translate(0,452.36218)" />
    <path
       style="fill:#f8f7f3;fill-opacity:1;stroke:none"
       d="m -0.77021823,909.87181 804.87804823,16.17458 0,-21.56611 -805.6482665,-16.9448 z"
       id="path6702"
       inkscape:connector-curvature="0" />
    <path
       style="fill:#b2d7ea;fill-opacity:1;stroke:none"
       d="m 816.9398,717.89347 -210.22584,2.17851 -5.44627,-151.40618 212.40435,-8.71402 z"
       id="path5821"
       inkscape:connector-curvature="0" />
    <path
       style="fill:#ffffff;fill-opacity:1;stroke:none"
       d="m 0,465.45589 801.02696,14.63415 0.77022,53.91527 L -3.0808729,520.9116 z"
       id="path5291"
       inkscape:connector-curvature="0" />
    <path
       style="fill:#344454;fill-opacity:1;stroke:none"
       d="m 0,457.73773 800.601,15.24954 2.17851,133.54825 -806.0472692,-1.08925 z"
       id="path5801"
       inkscape:connector-curvature="0"
       transform="translate(0,452.36218)"
       sodipodi:nodetypes="ccccc" />
    <path
       style="fill:#559a47;fill-opacity:1;stroke:none"
       d="m 810.40428,765.8206 -202.60107,2.17851 -3.26776,-80.60473 38.12386,13.07104 51.19489,10.89253 38.12386,-14.16029 40.30236,-41.39162 44.65938,-18.5173 z"
       id="path5819"
       inkscape:connector-curvature="0" />
    <path
       style="fill:#f8f7f3;fill-opacity:1;stroke:none"
       d="m 821.28125,547.95605 -235.25,6.5625 4.34375,226.5625 229.84375,-1.09375 1.0625,-232.03125 z m -14.15625,20.71875 2.1875,86.03125 -88.21875,2.1875 -1.09375,-83.875 87.125,-4.34375 z m -101.28125,3.25 2.15625,89.3125 -94.75,1.09375 -3.28125,-87.125 95.875,-3.28125 z m 104.5625,96.9375 -2.1875,86.0625 -87.125,1.09375 1.09375,-82.78125 88.21875,-4.375 z M 709.09375,674.33105 708,759.2998 615.4375,758.20605 613.25,675.4248 l 95.84375,-1.09375 z"
       id="path5805"
       inkscape:connector-curvature="0" />
    <path
       style="fill:#867248;fill-opacity:1;stroke:none"
       d="m 536.84211,932.20814 -247.24006,-3.08088 -2.31065,-215.6611 268.03594,2.31065 z"
       id="12345"
       inkscape:connector-curvature="0"
       inkscape:label="#12345" />
    <path
       style="fill:#71603d;fill-opacity:1;stroke:none"
       d="m 304.2362,730.41096 -1.92555,86.64955 228.75482,3.46598 4.62131,-89.34531 z"
       id="path6628"
       inkscape:connector-curvature="0" />
    <path
       inkscape:connector-curvature="0"
       id="path6630"
       d="m 304.2362,828.61378 -1.92555,86.64955 221.43775,4.2362 6.54685,-88.57509 z"
       style="fill:#584b30;fill-opacity:1;stroke:none"
       sodipodi:nodetypes="ccccc" />
    <g
       id="g6648"
       transform="matrix(0.85942492,0,0,0.85942492,-2.0941076,69.095881)">
      <path
         sodipodi:nodetypes="ccccccccccccccccccccccccccccccccccc"
         inkscape:connector-curvature="0"
         id="path6634"
         d="m 463.95342,707.28346 9.16669,8.81413 3.17308,-3.17308 5.64103,6.34616 -3.17308,1.9391 4.9359,4.58334 -4.58334,2.29168 -4.23078,-4.58334 -19.35308,13.00692 -24.00654,-0.95481 -2.41704,5.06614 30.39297,9.94796 -68.60978,0.15345 24.47818,-9.70565 -0.76871,-6.13502 -21.12046,-0.84002 -30.32057,-27.85261 3.52564,-48.65393 10.71526,-20.2345 -4.93591,-4.40705 2.64424,-3.87822 4.23078,4.23077 1.93909,-2.11538 5.81733,4.58334 -1.93911,2.46795 11.10579,9.51925 -2.46796,3.52565 -10.9295,-9.16669 -9.48127,17.59027 -2.64424,43.36546 24.50325,22.56413 57.29176,3.52565 17.76654,-10.53898 -8.81412,-8.10898 z"
         style="fill:#b9a022;fill-opacity:1;stroke:none" />
      <path
         inkscape:connector-curvature="0"
         id="path6632"
         d="m 424.60272,627.20171 -38.45248,19.22624 -10.45638,27.99611 11.46828,39.80169 30.01992,10.79368 35.75406,-0.3373 29.00801,-27.99611 -8.09525,-51.60728 z"
         style="fill:#5c82a6;fill-opacity:1;stroke:none" />
      <path
         transform="translate(0,452.36218)"
         inkscape:connector-curvature="0"
         id="path6636"
         d="m 421.69448,222.40051 -10.20539,6.54686 2.31065,14.24904 7.50963,4.81386 -5.00642,15.01925 6.73941,1.54044 19.83312,-21.181 1.92555,-17.90757 z"
         style="fill:#81b922;fill-opacity:1;stroke:none" />
      <path
         transform="translate(0,452.36218)"
         inkscape:connector-curvature="0"
         id="path6638"
         d="m 444.41592,225.67394 16.17458,3.65854 7.50963,9.24262 0,8.08729 7.70218,1.73299 3.85109,-14.24904 -1.15533,-12.13094 -2.69576,-15.98202 -10.5905,0 -14.63415,-6.54686 -11.55327,-5.96919 -10.20539,3.27343 -7.70218,10.97561 4.81386,8.27984 -4.2362,6.3543 z"
         style="fill:#81b922;fill-opacity:1;stroke:none" />
      <path
         sodipodi:nodetypes="ccccccccccccccccccc"
         transform="translate(0,452.36218)"
         inkscape:connector-curvature="0"
         id="path6640"
         d="m 385.68678,195.05777 7.89474,0.77021 4.6213,-2.88831 2.50321,3.08087 -10.5905,9.82028 -2.31065,6.93197 -3.85109,6.93196 2.1181,8.66495 -1.54044,2.69577 -4.2362,-6.73941 -2.88832,-1.73299 2.88832,11.36072 4.62131,1.73299 3.46598,8.27984 -2.50321,6.93197 1.54044,6.3543 -0.96277,1.92554 -10.97561,-37.35558 z"
         style="fill:#81b922;fill-opacity:1;stroke:none" />
      <path
         sodipodi:nodetypes="ccccccscccc"
         transform="translate(0,452.36218)"
         inkscape:connector-curvature="0"
         id="path6642"
         d="m 401.66881,186.0077 21.37355,6.16175 18.48524,-4.42876 5.39153,-0.57766 3.08087,7.50963 -1.92555,3.65853 c 0,0 16.36714,7.70218 17.13736,7.70218 0.77022,0 10.78306,0 10.78306,0 l -2.02183,-13.38253 -49.19769,-18.19641 z"
         style="fill:#ffffff;fill-opacity:1;stroke:none" />
      <path
         sodipodi:nodetypes="ccccccccc"
         transform="translate(0,452.36218)"
         inkscape:connector-curvature="0"
         id="path6644"
         d="m 401.47625,267.07317 16.17458,5.77664 27.92041,-0.38511 -7.70218,-3.85109 -8.4724,2.31065 -12.90115,-3.27343 -1.54044,2.1181 -10.78305,-3.46598 z"
         style="fill:#ffffff;fill-opacity:1;stroke:none" />
      <path
         sodipodi:nodetypes="ccccccc"
         transform="translate(0,452.36218)"
         inkscape:connector-curvature="0"
         id="path6646"
         d="m 470.50706,255.23106 -5.68036,-0.67394 -2.88832,4.62131 -4.2362,0.38511 0.57767,5.39153 -0.38512,2.59948 z"
         style="fill:#81b922;fill-opacity:1;stroke:none" />
      <path
         style="fill:#000000;fill-opacity:0.25000000000000000;stroke:none"
         d="m 452.55136,724.9713 29.36456,-28.30552 -7.89474,-51.12324 -8.4724,47.4647 -20.41078,18.48524 -27.53529,13.86393 z"
         id="path6658"
         inkscape:connector-curvature="0"
         sodipodi:nodetypes="ccccccc" />
    </g>
    <path
       style="fill:#a22f2f;fill-opacity:1;stroke:none"
       d="m 523.36329,756.98349 -16.5597,60.46213 7.70218,1.92554 18.10013,-58.92169 z"
       id="path6678"
       inkscape:connector-curvature="0"
       sodipodi:nodetypes="ccccc" />
    <path
       style="fill:#5e9e38;fill-opacity:1;stroke:none"
       d="m 506.61104,819.37117 3.08087,-63.54301 -9.24262,0.38511 0.38511,63.543 z"
       id="path6680"
       inkscape:connector-curvature="0" />
    <path
       style="fill:#dcc81d;fill-opacity:1;stroke:none"
       d="m 489.66624,757.3686 3.46598,61.61746 6.93197,0 0.38511,-63.1579 z"
       id="path6682"
       inkscape:connector-curvature="0" />
    <path
       style="fill:#5a275e;fill-opacity:1;stroke:none"
       d="m 489.28114,756.98349 -1.92555,62.00257 -8.08729,-0.77022 1.92554,-60.84724 z"
       id="path6684"
       inkscape:connector-curvature="0"
       sodipodi:nodetypes="ccccc" />
    <path
       style="fill:#5a9abd;fill-opacity:1;stroke:none"
       d="m 478.69063,757.75371 0.38511,60.46213 -12.32349,0 0.38511,-60.84724 z"
       id="path6686"
       inkscape:connector-curvature="0" />
    <path
       style="fill:#f9a106;fill-opacity:1;stroke:none"
       d="m 462.13094,818.21584 5.00642,-61.23235 -2.69576,-0.38511 -5.00642,61.23235 z"
       id="path6688"
       inkscape:connector-curvature="0" />
    <path
       style="fill:#911d02;fill-opacity:1;stroke:none"
       d="m 450.67394,819.27489 -0.0963,-10.87934 -48.13864,0.38511 -0.3851,9.82028 z"
       id="path6690"
       inkscape:connector-curvature="0"
       sodipodi:nodetypes="ccccc" />
    <path
       style="fill:#7b339b;fill-opacity:1;stroke:none"
       d="m 449.03723,808.29927 -47.36842,0.38511 0.38511,-2.69576 46.98331,-0.77022 z"
       id="path6692"
       inkscape:connector-curvature="0" />
    <path
       style="fill:#ede532;fill-opacity:1;stroke:none"
       d="m 389.34531,802.61892 -0.3851,3.85109 64.69833,-1.15533 0,-3.08087 z"
       id="path6694"
       inkscape:connector-curvature="0" />
    <path
       style="fill:#192f5b;fill-opacity:1;stroke:none"
       d="m 392.61874,798.09388 -0.38511,4.33248 59.69192,-0.19256 0.57766,-4.81386 z"
       id="path6696"
       inkscape:connector-curvature="0" />
    <path
       style="fill:#155218;fill-opacity:1;stroke:none"
       d="m 395.69962,792.02842 -0.57767,5.96919 54.49294,-0.57766 -0.57766,-5.39153 z"
       id="path6698"
       inkscape:connector-curvature="0" />
    <path
       style="fill:#e880ee;fill-opacity:1;stroke:none"
       d="m 376.34788,789.09196 -0.19256,2.88832 78.75482,0 0.38511,-2.50321 z"
       id="path6700"
       inkscape:connector-curvature="0" />
    <g
       id="g6714"
       transform="matrix(0.99983057,-0.01840752,0.01840752,0.99983057,171.35267,-134.73222)">
      <path
         sodipodi:nodetypes="ccccccccccccc"
         transform="translate(0,452.36218)"
         inkscape:connector-curvature="0"
         id="path6704"
         d="m 319.25546,335.23748 -4.2362,4.42876 -0.19256,21.75866 -7.31707,14.8267 -0.77022,20.60334 5.77664,6.73941 34.46726,0.96277 5.96919,-3.46598 0.77022,-24.06932 -6.16175,-15.78947 0,-20.98845 -4.81386,-5.19897 z"
         style="fill:#b7daee;fill-opacity:1;stroke:none" />
      <path
         transform="translate(0,452.36218)"
         inkscape:connector-curvature="0"
         id="path6708"
         d="m 333.85606,391.54419 2.72314,-10.75637 -1.08926,-10.75637 4.62933,1.90619 3.26776,5.44626 -1.77004,-5.58242 5.99089,0.68079 -7.62477,-1.9062 -4.0847,-1.36156 3.67623,-6.26321 4.62933,-2.45082 2.72313,3.40392 -1.49772,3.40391 1.90619,-3.1316 1.63388,2.17851 -3.1316,-5.44627 1.22541,-4.35701 -0.81694,-3.81239 -2.17851,-3.67623 1.63388,4.35702 -4.62932,-2.17851 4.49317,3.1316 0.13615,2.58698 -2.1785,-2.04235 1.90619,3.26776 -1.49772,1.22541 -4.62933,1.36157 0.68078,-8.1694 1.22541,-4.49317 4.90164,-2.17851 -5.85473,1.49773 1.36156,-5.31011 2.17851,-3.54008 -3.26776,3.40392 -0.9531,-2.99545 0.40847,4.0847 -0.68078,3.67623 -0.68078,-1.90619 0,2.58698 -2.17851,1.36156 2.58698,-0.81694 -0.54463,4.49317 -1.49772,8.44171 -6.12705,-9.93943 3.67623,-5.85474 1.77003,5.71858 -1.08925,-7.08014 3.81239,-2.58698 -4.0847,1.49772 1.22541,-4.22085 -0.27232,-7.08015 -0.95309,6.94399 -3.67623,-5.58242 2.99544,6.80783 -1.22541,3.94854 -3.94854,7.2163 -6.2632,-5.17395 1.08925,-9.25865 1.63388,-4.0847 -2.99545,3.94854 -1.49772,8.44172 -4.62932,-3.13161 4.08469,4.49317 -2.99544,-0.40847 4.90164,1.9062 6.39936,5.44626 3.26776,7.08015 -6.67168,-1.49773 -6.39936,-3.26776 2.99545,2.72314 -3.26776,2.72313 -2.85929,0.40847 2.04235,0.40847 -1.08925,2.31466 3.81238,-3.54007 2.72313,-1.22541 9.25866,2.58698 1.63387,2.31466 -1.77003,5.58242 1.22541,11.57331 -4.0847,10.89253 z"
         style="fill:#6aa430;fill-opacity:1;stroke:none" />
      <path
         sodipodi:nodetypes="ccccccccc"
         transform="translate(0,452.36218)"
         inkscape:connector-curvature="0"
         id="path6706"
         d="m 309.33687,389.46815 -0.25861,5.76983 5.39153,5.87292 32.44922,0.55288 3.94046,-2.52276 0.16598,-8.27833 -4.905,0.59544 -22.05109,0.005 z"
         style="fill:#4d4523;fill-opacity:1;stroke:none" />
      <path
         inkscape:connector-curvature="0"
         id="path6710"
         d="m 321.59389,789.7791 -4.48215,3.9345 -0.14502,22.53867 2.644,-20.87401 z"
         style="fill:#ffffff;fill-opacity:1;stroke:none"
         sodipodi:nodetypes="ccccc" />
      <path
         transform="translate(0,452.36218)"
         inkscape:connector-curvature="0"
         id="path6712"
         d="m 345.3326,354.04462 0.64141,6.86433 4.22702,15.92769 -0.41876,21.18493 -3.60162,2.22726 0.14454,-23.43916 -1.57659,-16.30919 z"
         style="fill:#002775;fill-opacity:0.29255316999999997;stroke:none"
         sodipodi:nodetypes="cccccccc" />
    </g>
    <g
       id="g6767"
       transform="matrix(0.66336633,0,-0.30212724,0.66336633,435.72627,310.93005)">
      <path
         sodipodi:nodetypes="ccccc"
         inkscape:connector-curvature="0"
         id="path6757"
         d="m 442.87548,837.47129 -7.70218,73.17074 73.17073,3.85109 7.70218,-77.79204 z"
         style="fill:#b7daee;fill-opacity:1;stroke:none" />
      <path
         sodipodi:nodetypes="cccccccccc"
         inkscape:connector-curvature="0"
         id="path6759"
         d="m 456.3543,847.86924 -10.78305,12.70861 -1.15533,24.26187 14.63414,18.48524 22.72144,3.46598 22.33633,-16.9448 2.69576,-24.26188 -8.4724,-14.63414 -19.64056,-6.93197 z"
         style="fill:#f1e896;fill-opacity:1;stroke:none" />
      <path
         sodipodi:nodetypes="cccccc"
         inkscape:connector-curvature="0"
         id="path6761"
         d="m 466.9123,855.06667 -5.17005,2.06803 0,4.48071 6.20406,2.41271 4.48074,-4.8254 z"
         style="fill:#a4a4a4;fill-opacity:1;stroke:none" />
      <path
         sodipodi:nodetypes="ccccccc"
         inkscape:connector-curvature="0"
         id="path6763"
         d="m 482.75722,855.66656 -3.58231,3.28378 0.29855,3.88084 5.37344,1.79113 4.47787,-2.98525 -1.19411,-4.47787 z"
         style="fill:#a4a4a4;fill-opacity:1;stroke:none" />
      <path
         sodipodi:nodetypes="cccccc"
         transform="translate(0,452.36218)"
         inkscape:connector-curvature="0"
         id="path6765"
         d="m 454.04365,424.00513 5.39152,12.3235 11.16817,3.46598 12.7086,0 15.78947,-14.63415 z"
         style="fill:#a4a4a4;fill-opacity:1;stroke:none" />
    </g>
    <g
       id="g6741"
       transform="translate(3.5622592,1.5404365)">
      <path
         inkscape:connector-curvature="0"
         id="path6731"
         d="m 401.57651,897.2375 27.08979,-0.55856 0.55855,4.7477 -4.46843,0.55856 -4.46841,13.68453 -12.00887,0 -3.35132,-13.9638 -4.18915,0 z"
         style="fill:#42c824;fill-opacity:1;stroke:none" />
      <path
         sodipodi:nodetypes="cccccc"
         inkscape:connector-curvature="0"
         id="path6733"
         d="m 420.32921,915.6267 4.42509,-13.68374 -8.03324,-0.0681 4.40271,1.64214 -4.19847,12.17776 z"
         style="fill:#32981b;fill-opacity:1;stroke:none" />
    </g>
    <g
       id="g6745"
       transform="translate(2.6957637,0.19255456)">
      <path
         sodipodi:nodetypes="ccccccccc"
         inkscape:connector-curvature="0"
         id="path6729"
         d="m 430.62123,896.67894 29.60328,1.39638 -1.67565,5.30625 -5.30625,0.27927 -3.63059,13.40527 -10.61251,0.55853 -2.79276,-15.36017 -5.02696,0 z"
         style="fill:#dec73a;fill-opacity:1;stroke:none" />
      <path
         sodipodi:nodetypes="cccccc"
         inkscape:connector-curvature="0"
         id="path6735"
         d="m 453.21104,903.64492 -7.2163,-0.54462 3.33584,1.83811 -3.26776,12.32217 3.67623,-0.20423 z"
         style="fill:#978519;fill-opacity:1;stroke:none" />
    </g>
    <g
       id="g6749"
       transform="translate(1.1553273,0)">
      <path
         sodipodi:nodetypes="ccccccccc"
         inkscape:connector-curvature="0"
         id="path6727"
         d="m 462.17944,898.35459 c 1.67566,0 27.36908,-0.27927 27.36908,-0.27927 l 0.27927,4.74769 -3.6306,0.83783 -3.63059,14.24309 -13.9638,0.55855 -2.23421,-15.08092 -5.02697,-0.83782 z"
         style="fill:#429bdb;fill-opacity:1;stroke:none" />
      <path
         inkscape:connector-curvature="0"
         id="path6737"
         d="m 486.22902,903.64492 -8.37363,0 4.01662,1.36157 -3.54007,13.07103 4.22085,-0.20423 z"
         style="fill:#2173ad;fill-opacity:1;stroke:none" />
    </g>
    <g
       id="g6753">
      <path
         sodipodi:nodetypes="ccccccccc"
         inkscape:connector-curvature="0"
         id="path6725"
         d="m 511.33205,919.02104 4.46842,-15.3602 5.02697,0.27929 0,-3.90988 -29.04472,-1.95493 0,4.18915 5.02697,-0.27929 1.95493,17.03586 z"
         style="fill:#b02929;fill-opacity:1;stroke:none" />
      <path
         sodipodi:nodetypes="cccccc"
         inkscape:connector-curvature="0"
         id="path6739"
         d="m 515.8431,903.50876 -8.30556,-0.47654 3.88046,1.77003 -3.84642,14.19433 3.77834,0.0681 z"
         style="fill:#771c1c;fill-opacity:1;stroke:none" />
    </g>
    <g
       id="g6788">
      <path
         sodipodi:nodetypes="ccccc"
         transform="translate(0,452.36218)"
         inkscape:connector-curvature="0"
         id="path6774"
         d="m 314.63415,426.7009 4.62131,36.58536 58.92169,1.05905 8.4724,-34.56354 z"
         style="fill:#307fbf;fill-opacity:1;stroke:none" />
      <path
         sodipodi:nodetypes="ccccc"
         transform="translate(0,452.36218)"
         inkscape:connector-curvature="0"
         id="path6776"
         d="m 307.70218,420.15404 -0.77022,6.93197 87.03466,3.46598 0.77022,-7.70218 z"
         style="fill:#d4cd39;fill-opacity:1;stroke:none" />
      <path
         sodipodi:nodetypes="ccccc"
         inkscape:connector-curvature="0"
         id="path6778"
         d="m 362.96534,874.24921 0,-3.85109 -23.10654,-0.38511 -0.33697,3.56226 z"
         style="fill:#e9e9e9;fill-opacity:1;stroke:none" />
      <path
         sodipodi:nodetypes="ccccc"
         transform="translate(0,452.36218)"
         inkscape:connector-curvature="0"
         id="path6780"
         d="m 314.586,427.37484 0.67395,4.33248 70.42683,2.79204 0.8665,-4.2362 z"
         style="fill:#266598;fill-opacity:1;stroke:none" />
    </g>
    <g
       id="g6784">
      <path
         inkscape:connector-curvature="0"
         id="path6723"
         d="m 312.94788,794.74754 -7.70218,4.42876 -1.54044,6.93196 1.92554,5.96919 4.62131,3.85109 7.89474,0.77022 5.77664,-4.2362 1.34788,-6.93196 -1.73299,-8.08729 z"
         style="fill:#9d1414;fill-opacity:1;stroke:none" />
      <path
         sodipodi:nodetypes="ccccccccc"
         transform="translate(0,452.36218)"
         inkscape:connector-curvature="0"
         id="path6782"
         d="m 323.97304,346.98331 1.39603,6.25803 -1.34789,6.98009 -5.53594,4.18807 -8.56868,-0.77022 8.4724,-1.44416 3.75481,-4.13992 1.25161,-5.58408 z"
         style="fill:#650d0d;fill-opacity:1;stroke:none" />
    </g>
    <path
       style="fill:#a57a00;fill-opacity:0.21176470999999999;stroke:none"
       d="m 590.17972,328.69063 8.66495,12.70861 207.18871,-0.38511 -1.15533,-13.28627 z"
       id="path6796"
       inkscape:connector-curvature="0"
       transform="translate(0,452.36218)"
       sodipodi:nodetypes="ccccc" />
    <path
       style="fill:#a57a00;fill-opacity:0.21276597999999999;stroke:none"
       d="m 537.79706,920.31619 16.56751,-193.94888 40.2439,72.59307 -9.3389,122.27214"
       id="path6802"
       inkscape:connector-curvature="0"
       sodipodi:nodetypes="cccc" />
    <path
       style="fill:#273440;fill-opacity:1;stroke:none"
       d="m 585.36585,921.23252 55.45572,16.36714 -103.97946,-5.39152 0.85867,-11.89195"
       id="path6798"
       inkscape:connector-curvature="0"
       sodipodi:nodetypes="cccc" />
    <path
       style="fill:#dc99e5;fill-opacity:1;stroke:none"
       d="m 593.80839,997.42894 59.66682,13.61956 -35.67039,16.214 -41.50734,-23.9965 z"
       id="path4967"
       inkscape:connector-curvature="0" />
    <path
       style="fill:#37bc30;fill-opacity:1;stroke:none"
       d="m 591.86273,1000.6718 61.61248,10.3767 7.78263,-16.86228 -64.85524,-5.83695 z"
       id="path4965"
       inkscape:connector-curvature="0"
       sodipodi:nodetypes="ccccc" />
    <path
       style="fill:#99e5de;fill-opacity:1;stroke:none"
       d="m 375.72979,1010.1701 39.68135,0.8049 0,9.3004 -41.54142,-0.7264 z"
       id="path4969"
       inkscape:connector-curvature="0" />
    <path
       style="fill:#f77213;fill-opacity:1;stroke:none"
       d="m 389.37026,1010.5431 0.62001,-35.07623 14.26049,0.63803 -1.24003,34.7736 z"
       id="path4971"
       inkscape:connector-curvature="0"
       sodipodi:nodetypes="ccccc" />
    <path
       style="fill:#cc183a;fill-opacity:1;stroke:none"
       d="m 410.76098,976.7601 0.31002,-11.17346 -31.62108,-0.21516 0.31,9.90724 z"
       id="path4973"
       inkscape:connector-curvature="0"
       sodipodi:nodetypes="ccccc" />
    <path
       style="fill:#457be8;fill-opacity:1;stroke:none"
       d="m 409.83095,965.63898 0,-13.02045 -29.451,0.004 0.46501,12.8458 z"
       id="path4975"
       inkscape:connector-curvature="0"
       sodipodi:nodetypes="ccccc" />
    <path
       style="fill:#e8da65;fill-opacity:1;stroke:none"
       d="m 390.61029,952.80992 0,-20.7707 12.71044,-0.84657 -0.31,21.4038 z"
       id="path4977"
       inkscape:connector-curvature="0" />
    <path
       style="fill:#45bc30;fill-opacity:1;stroke:none"
       d="m 392.03516,931.96968 -0.62001,-21.98458 12.40041,-2.07354 0.93003,23.21154 z"
       id="path4979"
       inkscape:connector-curvature="0" />
    <path
       inkscape:connector-curvature="0"
       id="path4991"
       d="m 382.12631,1024.871 -17.87002,0 0,6.4148 18.78642,0.4582 z"
       style="fill:#cc183a;fill-opacity:1;stroke:none" />
    <g
       id="g6298"
       transform="matrix(1.3765427,0,0,1.3765427,-183.00023,-373.4785)">
      <path
         style="fill:#f19385;fill-opacity:1;stroke:none"
         d="m 548.27421,1002.948 24.97074,19.317 -50.19299,-0.2228 -41.02928,-0.016 5.48856,-20.4968 31.1062,4.2198 z"
         id="path4997"
         inkscape:connector-curvature="0"
         sodipodi:nodetypes="ccccccc" />
      <path
         sodipodi:nodetypes="ccccccc"
         inkscape:connector-curvature="0"
         id="path4195"
         d="m 545.94391,1000.6177 24.97074,19.3171 -48.05688,0.9422 -38.89317,-3.1227 5.48855,-20.49685 29.16429,3.83145 z"
         style="fill:#d43018;fill-opacity:1;stroke:none" />
      <path
         sodipodi:nodetypes="ccccc"
         inkscape:connector-curvature="0"
         id="path4999"
         d="m 519.33122,1001.0303 -1.25384,0 4.92406,19.807 1.21951,0.012 z"
         style="font-size:medium;font-style:normal;font-variant:normal;font-weight:normal;font-stretch:normal;text-indent:0;text-align:start;text-decoration:none;line-height:normal;letter-spacing:normal;word-spacing:normal;text-transform:none;direction:ltr;block-progression:tb;writing-mode:lr-tb;text-anchor:start;baseline-shift:baseline;color:#000000;fill:#f19385;fill-opacity:1;stroke:none;stroke-width:1px;marker:none;visibility:visible;display:inline;overflow:visible;enable-background:accumulate;font-family:Sans;-inkscape-font-specification:Sans" />
    </g>
    <g
       id="g6303">
      <path
         sodipodi:nodetypes="ccccccccccccc"
         inkscape:connector-curvature="0"
         id="path5027"
         d="m 123.64511,678.33252 32.5954,-24.60829 19.71548,-30.47161 4.54822,-20.84034 -10.16628,-22.9425 -40.6625,-13.03201 -35.386411,25.58141 -0.50192,37.97051 13.060131,34.69549 1.61242,6.26288 -1.54679,9.74201 8.50136,6.42678 z"
         style="fill:#eee1ba;fill-opacity:1;stroke:none" />
      <path
         sodipodi:nodetypes="cccccccccccccccccccccccccccc"
         inkscape:connector-curvature="0"
         id="path3849"
         d="m 88.164387,610.79907 -8.739183,28.49992 13.275549,14.59111 11.974277,-0.0948 -0.61117,-21.99252 -1.66102,-7.6106 14.39128,-6.90415 3.76777,-14.57823 12.63494,-0.55724 9.39516,-7.55029 20.97086,-2.49226 10.29318,7.90528 5.29471,5.06749 11.92303,-5.34894 3.22422,-15.97512 -11.21596,-12.1334 -28.00185,-11.83906 -7.26739,5.08627 -6.02824,-4.06665 -26.74143,-7.71969 -5.43112,4.77595 -8.96016,2.12818 -1.537669,4.73167 -8.153711,0.58897 -4.440112,4.08236 -5.353563,8.62085 -3.615984,23.4297 z"
         style="fill:#6b623d;fill-opacity:1;stroke:none" />
      <path
         inkscape:connector-curvature="0"
         id="path5021"
         d="m 94.814141,674.72696 25.103839,-4.34096 24.77087,-51.82519 1.31725,-34.59903 -16.82788,-17.10453 -38.704325,-11.16206 -28.737872,25.01418 -10.495448,39.7449 20.128252,42.875 7.121386,4.24363 -0.349641,9.76349 9.682167,4.80459 z"
         style="fill:#f5eed8;fill-opacity:1;stroke:none" />
      <path
         sodipodi:nodetypes="ccccccccccc"
         inkscape:connector-curvature="0"
         id="path5023"
         d="m 130.81747,682.87965 18.35048,68.15898 -1.74767,80.39266 -11.35982,7.86449 -31.45799,-5.24299 -5.242995,-106.60765 -3.495332,-43.69166 7.864497,-6.99067 7.86451,6.11684 12.23365,-2.6215 z"
         style="fill:#705baf;fill-opacity:1;stroke:none" />
      <path
         sodipodi:nodetypes="cccccccccc"
         inkscape:connector-curvature="0"
         id="path5025"
         d="m 147.70865,831.71965 -15.07841,84.07922 -5.58318,71.69788 -25.53786,-4.58054 0.58888,-73.87115 5.41426,-53.73191 -6.99067,-7.86451 -16.602826,-17.47666 41.070146,6.11684 z"
         style="fill:#286788;fill-opacity:1;stroke:none" />
      <path
         sodipodi:nodetypes="cccccc"
         inkscape:connector-curvature="0"
         id="path6288"
         d="m 148.29413,1009.2564 -6.11684,-24.03047 -27.96265,0.25594 -12.23367,-3.05842 -2.184579,12.41461 z"
         style="fill:#8c8c8c;fill-opacity:1;stroke:none" />
      <path
         sodipodi:nodetypes="cccccc"
         inkscape:connector-curvature="0"
         id="path5017"
         d="m 108.09781,836.67428 -0.87384,80.39266 -5.243,85.63566 -13.981326,0.8739 2.6215,-168.64987 z"
         style="fill:#2c7297;fill-opacity:1;stroke:none" />
      <path
         style="fill:#ababab;fill-opacity:1;stroke:none"
         d="m 67.406435,993.44766 33.041605,1.3254 23.00954,-7.5544 19.07517,22.83154 -42.39395,0.7629 -37.309066,-1.492 z"
         id="path6286"
         inkscape:connector-curvature="0"
         sodipodi:nodetypes="ccccccc" />
      <path
         sodipodi:nodetypes="cccccccccc"
         inkscape:connector-curvature="0"
         id="path5015"
         d="m 58.289316,1000.0811 10.485998,-95.24782 -1.747666,-45.43933 -10.486,-2.6215 -3.495331,-24.46733 27.962661,4.36916 13.544414,-3.05841 1.310751,80.82957 -3.93225,84.32492 z"
         style="fill:#317da6;fill-opacity:1;stroke:none" />
      <path
         sodipodi:nodetypes="ccccccccccccc"
         inkscape:connector-curvature="0"
         id="path5019"
         d="m 53.046317,832.30512 -0.873834,-80.39265 12.233665,-66.41132 10.485998,-9.61217 8.738331,4.36917 8.738333,-3.49534 8.73833,2.6215 8.73834,94.37399 12.79218,30.13849 -14.53985,32.77749 -14.855167,-2.62149 -12.233665,2.62149 z"
         style="fill:#c72222;fill-opacity:1;stroke:none" />
      <path
         inkscape:connector-curvature="0"
         id="path6278"
         d="m 123.38988,804.34245 11.35983,6.99067 0,12.23366 -9.61217,11.35983 -13.98132,-1.74766 -5.243,-15.72899 z"
         style="fill:#f5eed8;fill-opacity:1;stroke:none" />
      <path
         sodipodi:nodetypes="cccccccc"
         inkscape:connector-curvature="0"
         id="path6280"
         d="m 127.26752,806.58165 12.06981,-2.23919 1.96613,21.84583 -19.00587,10.48599 -7.42757,-9.83061 8.08294,-5.89838 9.61217,-6.99066 z"
         style="fill:#eee1ba;fill-opacity:1;stroke:none" />
      <path
         sodipodi:nodetypes="ccccccccccc"
         inkscape:connector-curvature="0"
         id="path6282"
         d="m 60.595025,639.15107 -0.629618,-21.18447 19.890082,-35.08577 35.808381,-1.57788 30.52226,9.90621 0.23864,-7.67721 -17.08525,-17.80118 -39.611697,-11.17697 -28.869106,25.25114 -10.742944,39.66189 z"
         style="fill:#402d14;fill-opacity:1;stroke:none" />
      <path
         sodipodi:nodetypes="ccccccc"
         inkscape:connector-curvature="0"
         id="path6284"
         d="m 58.231186,997.37996 33.041602,1.3253 23.009552,-7.55434 19.07516,22.83148 -42.39395,0.763 -37.309065,-1.492 z"
         style="fill:#c2c2c2;fill-opacity:1;stroke:none" />
      <path
         sodipodi:nodetypes="cccccc"
         inkscape:connector-curvature="0"
         id="path6290"
         d="m 99.05371,607.49005 -5.183655,16.19022 11.570865,1.62686 11.13193,4.02545 5.64008,-17.23839 z"
         style="fill:#70d2d2;fill-opacity:1;stroke:none" />
      <path
         sodipodi:nodetypes="cccccc"
         inkscape:connector-curvature="0"
         id="path6292"
         d="m 128.59608,613.46261 -5.07799,15.65196 11.17514,1.55191 9.67258,3.3354 6.05836,-15.53861 z"
         style="fill:#70d2d2;fill-opacity:1;stroke:none" />
      <path
         sodipodi:nodetypes="ccccc"
         inkscape:connector-curvature="0"
         id="path6294"
         d="m 99.031787,607.51154 -29.928786,-5.5707 -1.993431,2.9765 30.857233,6.17144 z"
         style="fill:#000000;fill-opacity:1;stroke:none" />
      <path
         sodipodi:nodetypes="ccccc"
         inkscape:connector-curvature="0"
         id="path6296"
         d="m 122.13375,612.20839 6.44451,1.25613 -1.09229,3.4134 -6.38989,-1.31074 z"
         style="fill:#000000;fill-opacity:1;stroke:none" />
    </g>
    <g
       id="g6337">
      <path
         style="fill:#f77213;fill-opacity:1;stroke:none"
         d="m 454.52277,1007.0009 -5.04026,13.2879 -0.45821,7.7896 8.70591,0.4581 4.12385,-16.9536 0,-4.8112 z"
         id="path4995"
         inkscape:connector-curvature="0"
         sodipodi:nodetypes="ccccccc" />
      <path
         sodipodi:nodetypes="ccccc"
         transform="translate(0,452.36218)"
         inkscape:connector-curvature="0"
         id="path6323"
         d="m 457.6779,576.1236 0.0936,-7.30338 4.11985,-14.41947 0.0936,5.05618 z"
         style="fill:#cd5907;fill-opacity:1;stroke:none" />
    </g>
    <g
       id="g6333">
      <path
         style="fill:#45bc30;fill-opacity:1;stroke:none"
         d="m 428.40506,1024.4127 11.91334,9.6223 0.45821,7.7895 -8.2477,3.2074 -10.99694,-11.4552 -0.4582,-7.3312 z"
         id="path4993"
         inkscape:connector-curvature="0" />
      <path
         sodipodi:nodetypes="ccccc"
         transform="translate(0,452.36218)"
         inkscape:connector-curvature="0"
         id="path6325"
         d="m 432.51405,592.69663 -0.21068,-8.89513 8.02902,-2.13015 0.46817,7.79494 z"
         style="fill:#338a23;fill-opacity:1;stroke:none" />
    </g>
    <g
       id="g6329">
      <path
         style="fill:#99e5de;fill-opacity:1;stroke:none"
         d="m 353.71756,1028.5365 -23.8267,9.1641 -11.45513,-0.9163 -0.45821,-9.1642 25.65952,-9.6222 9.62231,0.4581 z"
         id="path4989"
         inkscape:connector-curvature="0" />
      <path
         sodipodi:nodetypes="ccccc"
         transform="translate(0,452.36218)"
         inkscape:connector-curvature="0"
         id="path6327"
         d="m 329.86891,585.39326 23.92323,-9.12922 -0.51499,-10.15917 -23.68914,9.50374 z"
         style="fill:#63d7cd;fill-opacity:1;stroke:none" />
    </g>
    <path
       style="fill:#ddd13b;fill-opacity:1;stroke:none"
       d="m 545.81874,905.00027 26.49891,13.24947 3.01124,18.06745 -15.65845,6.02246 -4.81799,31.91915 -52.39557,3.01122 -3.61349,-34.93037 -13.85171,0 8.43147,-24.69217 21.68095,-12.6472 10.84046,6.62473 12.04497,-1.80675 z"
       id="path6341"
       inkscape:connector-curvature="0"
       sodipodi:nodetypes="ccccccccccccc" />
    <path
       style="fill:#f5eed8;fill-opacity:1;stroke:none"
       d="m 574.72663,936.46774 -23.48766,30.56409 -41.32926,2.25841 -3.49776,1.23481 5.98201,-10.7202 33.72589,-1.95732 11.74386,-15.05619 z"
       id="path6343"
       inkscape:connector-curvature="0"
       sodipodi:nodetypes="cccccccc" />
    <path
       style="fill:#f5eed8;fill-opacity:1;stroke:none"
       d="m 488.60517,942.33965 7.07642,26.49891 10.53933,3.31236 22.05093,-40.88643 -1.77577,-8.23762 -6.80397,-3.69359 -9.32844,-14.66904 -3.5739,4.03031 5.54723,14.55924 3.64063,5.02821 -12.01513,27.15655 -4.96855,-13.40003 z"
       id="path6345"
       inkscape:connector-curvature="0"
       sodipodi:nodetypes="ccccccccccccc" />
    <path
       style="fill:#2c7297;fill-opacity:1;stroke:none"
       d="m 575.02777,957.09472 9.03371,21.37981 -75.58211,11.74386 -8.43147,-12.04502 z"
       id="path6349"
       inkscape:connector-curvature="0"
       sodipodi:nodetypes="ccccc" />
    <path
       style="fill:#317da6;fill-opacity:1;stroke:none"
       d="m 480.77598,956.94413 -6.02251,20.4764 74.52819,17.61596 8.58205,-15.50809 z"
       id="path3127"
       inkscape:connector-curvature="0"
       sodipodi:nodetypes="ccccc" />
    <path
       style="fill:#ababab;fill-opacity:1;stroke:none"
       d="m 507.72654,989.08909 -12.79777,2.6349 -25.89665,-3.0112 0,-7.82924 15.35733,-8.4315 12.94832,8.4315 5.79664,1.65618 z"
       id="path3897"
       inkscape:connector-curvature="0"
       sodipodi:nodetypes="cccccccc" />
    <path
       style="fill:#ababab;fill-opacity:1;stroke:none"
       d="m 557.0356,980.95881 21.30454,-3.38763 23.7888,7.82921 -3.01125,7.227 -19.27193,6.9257 -29.81128,-5.8719 z"
       id="path3899"
       inkscape:connector-curvature="0"
       sodipodi:nodetypes="ccccccc" />
    <text
       xml:space="preserve"
       style="font-size:40px;font-style:normal;font-variant:normal;font-weight:normal;font-stretch:normal;line-height:125%;letter-spacing:0px;word-spacing:0px;fill:#872a2a;fill-opacity:1;stroke:none;font-family:Serif;-inkscape-font-specification:Serif"
       x="-141.96016"
       y="508.02954"
       id="text4085"
       sodipodi:linespacing="125%"
       transform="matrix(0.99987755,0.01564908,-0.01564908,0.99987755,0,0)"><tspan
         sodipodi:role="line"
         id="tspan4087"
         x="-141.96016"
         y="508.02954">Aa Bb Cc Dd Ee Ff Gg Hh Ii Jj Kk Ll Mm Nn Oo Pp Qq Rr</tspan></text>
  </g>
  <g
     inkscape:groupmode="layer"
     id="layer2"
     inkscape:label="hidden"
     style="display:none">
    <rect
       style="fill:#ffffff;fill-opacity:1;stroke:#000000;stroke-width:1.79999995;stroke-miterlimit:4;stroke-opacity:1;stroke-dasharray:none"
       id="kid-head"
       width="9.5505619"
       height="9.5505619"
       x="530.61798"
       y="471.44196"
       inkscape:label="#rect3942" />
    <rect
       inkscape:label="#rect3942"
       y="394.56931"
       x="537.07867"
       height="9.5505619"
       width="9.5505619"
       id="thought-bubble"
       style="fill:#ffffff;fill-opacity:1;stroke:#000000;stroke-width:1.79999995;stroke-miterlimit:4;stroke-opacity:1;stroke-dasharray:none" />
    <rect
       style="fill:#ffffff;fill-opacity:1;stroke:#000000;stroke-width:1.79999995;stroke-miterlimit:4;stroke-opacity:1;stroke-dasharray:none"
       id="puzzle"
       width="9.5505619"
       height="9.5505619"
       x="197.75285"
       y="41.011246"
       inkscape:label="#rect3942" />
  </g>
</svg>
